# Create new diplomatic actions like this. AI will currently never send them.
make_autonomous_vassal = {
	category = influence
	
	alert_index = 40
	alert_tooltip = demand_dummy_alert_tooltip
	
	require_acceptance = no # Whether the recipient gets an option to decline
	
	is_visible = {
		is_subject = no
		FROM = {
			is_subject_of_type = vassal
			is_subject_of = ROOT		
		}
	}
	is_allowed = {
		hidden_trigger = {
			is_subject = no
			FROM = {
				is_subject_of_type = vassal
				is_subject_of = ROOT		
			}
		}
		reverse_has_opinion = {
			who = FROM
			value = 0
		}
		FROM = {
			is_subject_of_type = vassal
			is_subject_of = ROOT		
		}
	}
	on_accept = {
		add_trust = {
			who = FROM
			value = 10
			mutual = yes
		}
		create_subject = {
			subject_type = autonomous_vassal
			subject = FROM 
		}
	}
	on_decline = 	{
	}
	
	ai_acceptance = { # This works similarly to variable_arithmetic_trigger, but does not support triggers generally. Instead, "limit" will be evaluated first and the rest ignored if it isn't passed.
	}

	ai_will_do = { # this is a trigger
		always = no
	}
}

cancel_autonomous_vassal =  {
	category = influence
	require_acceptance = no
	is_visible = {
		overlord_of = FROM
		FROM = {
			is_subject_of_type = autonomous_vassal
		}
		NOT = {
			AND = {
				FROM = { tag = Z44 } ##Aelnar can't make Silblaidd a normal vassal
				tag = Z43
			}
		}
	}
	
	is_allowed = {
		hidden_trigger = {
			overlord_of = FROM
			FROM = {
				is_subject_of_type = autonomous_vassal
			}
			NOT = {
				AND = {
					FROM = { tag = Z44 } ##Aelnar can't make Silblaidd a normal vassal
					tag = Z43
				}
			}
		}
		FROM = {
			NOT = { liberty_desire = 50 }
		}
		reverse_has_opinion = {
			who = FROM
			value = 0
		}
		FROM = {
			is_subject_of_type = autonomous_vassal
			is_subject_of = ROOT		
		}
		stability = 0
	}
	
	on_accept = {
		add_trust = {
			who = FROM
			value = -20
			mutual = yes
		}
		create_subject = {
			subject_type = vassal
			subject = FROM  # dk check
		}
		FROM = {
			add_liberty_desire = 65
		}
		if = {
			limit = {
				NOT = { full_idea_group = diplomatic_ideas } #reduced_stab_impacts = yes
			}
			add_stability = -1
		}

	}
	
	ai_will_do = {
		stability = 2 # Need to have the stab for it
		NOT = { vassal = 2 } # Gotta have a small number of other subjects, so you don't make em all disloyal
		FROM = { # They must have low liberty desire
			liberty_desire = 0
		}
	}
}
