
namespace = patrons_events

# Patrons general interactions menu; keep this universal
country_event = {
	id =  patrons_events.1
	title =  patrons_events.1.t
	desc = {
		trigger = { has_ruler_flag = honored_ancestor_patron }
		desc = ancestor_spirit.d
	}
	desc = {
		trigger = { has_ruler_flag = nature_spirit_patron }
		desc = nature_spirit.d
	}
	desc = {
		trigger = { has_ruler_flag = gumiho_patron }
		desc = gumiho.d
	}
	desc = {
		trigger = { has_ruler_flag = huli_jing_patron }
		desc = huli_jing.d
	}
	desc = {
		trigger = { has_ruler_flag = bladedancer_patron }
		desc = bladedancer.d
	}
	desc = {
		trigger = { has_ruler_flag = overlord_patron }
		desc = overlord.d
	}
	desc = {
		trigger = { has_ruler_flag = sage_patron }
		desc = sage.d
	}
	picture = FAMINE_eventPicture
	
	is_triggered_only = yes
	
	trigger = {
		always = yes
	}

	
	option = {	#Ask for Boon
		name = patrons_events.1.a
		trigger = {
			check_variable = {
				which = PatronApproval
				value = 1
			}
		}
		if = {
			limit = {
				has_ruler_flag = honored_ancestor_patron
			}
			country_event = { id = patrons_spirit_events.1 }
		}
		if = {
			limit = {
				has_ruler_flag = nature_spirit_patron
			}
			country_event = { id = patrons_spirit_events.3 }
		}
		if = {
			limit = {
				has_ruler_flag = gumiho_patron
			}
			country_event = { id = patrons_spirit_events.5 }
		}
		if = {
			limit = {
				has_ruler_flag = huli_jing_patron
			}
			country_event = { id = patrons_spirit_events.7 }
		}
		if = {
			limit = {
				has_ruler_flag = bladedancer_patron
			}
			country_event = { id = patrons_spirit_events.9 }
		}
		if = {
			limit = {
				has_ruler_flag = overlord_patron
			}
			country_event = { id = patrons_spirit_events.11 }
		}
		if = {
			limit = {
				has_ruler_flag = sage_patron
			}
			country_event = { id = patrons_spirit_events.13 }
		}
	}
	
	option = {	#Offer Tribute
		name = patrons_events.1.b
		trigger = {
			NOT = {
				check_variable = {
					which = PatronApproval
					value = 8
				}
			}
		}
		if = {
			limit = {
				has_ruler_flag = honored_ancestor_patron
			}
			country_event = { id = patrons_spirit_events.2 }
		}
		if = {
			limit = {
				has_ruler_flag = nature_spirit_patron
			}
			country_event = { id = patrons_spirit_events.4 }
		}
		if = {
			limit = {
				has_ruler_flag = gumiho_patron
			}
			country_event = { id = patrons_spirit_events.6 }
		}
		if = {
			limit = {
				has_ruler_flag = huli_jing_patron
			}
			country_event = { id = patrons_spirit_events.8 }
		}
		if = {
			limit = {
				has_ruler_flag = bladedancer_patron
			}
			country_event = { id = patrons_spirit_events.10 }
		}
		if = {
			limit = {
				has_ruler_flag = overlord_patron
			}
			country_event = { id = patrons_spirit_events.12 }
		}
		if = {
			limit = {
				has_ruler_flag = sage_patron
			}
			country_event = { id = patrons_spirit_events.14 }
		}
	}

	option = {	#Close Menu
		name = patrons_events.1.c
		close_single_menu = yes
	}
}

#Spirit patron selection
country_event = {
	id =  patrons_events.2
	title =  patrons_events.2.t
	desc =  patrons_events.2.d
	picture = FAMINE_eventPicture
	
	is_triggered_only = yes
	
	trigger = {
		always = yes
	}

	
	option = {	#Ancestral spirit
		name = patrons_events.2.a
		ai_chance = { 
			factor = 33 
			#if high stat, use this to get best usage
			modifier = {
				factor = 20
				adm = 5
			}
			#if low stat, use this to compensate
			modifier = {
				factor = 20
				NOT = { adm = 3 }
			}
		}
		custom_tooltip = gain_ancestor_patron_tt
		custom_tooltip = ancestor_spirit.d
		set_ruler_flag = honored_ancestor_patron
		hidden_effect = {
			set_variable = {
				which = PatronApproval
				value = 5
			}
		}
	}
	
	option = {	#Natural spirit
		name = patrons_events.2.b
		ai_chance = { 
			factor = 33 
			#if high stat, use this to get best usage
			modifier = {
				factor = 20
				mil = 5
			}
			#if low stat, use this to compensate
			modifier = {
				factor = 20
				NOT = { mil = 3 }
			}
		}
		custom_tooltip = gain_nature_patron_tt
		custom_tooltip = nature_spirit.d
		set_ruler_flag = nature_spirit_patron
		hidden_effect = {
			set_variable = {
				which = PatronApproval
				value = 5
			}
		}
	}

	option = {	#Fox
		name = patrons_events.2.c
		ai_chance = { 
			factor = 33 
			#if high stat, use this to get best usage
			modifier = {
				factor = 20
				dip = 5
			}
			#if low stat, use this to compensate
			modifier = {
				factor = 20
				NOT = { dip = 3 }
			}
		}
		custom_tooltip = gain_fox_patron_tt
		trigger = {
			OR = {
				culture_group = odheongun
				culture_group = yan
			}
			NOT = { has_reform = wulin }
			NOT = { has_reform = one_xia }
			NOT = { has_reform = xiaken }
			NOT = { has_reform = xia_parliament_reform }
			NOT = { has_reform = indep_xiaken }
		}
		if = {
			limit = {
				culture_group = odheongun
			}
			set_ruler_flag = gumiho_patron
			custom_tooltip = gumiho.d
		}
		else_if = {
			limit = {
				culture_group = yan
			}
			set_ruler_flag = huli_jing_patron
			custom_tooltip = huli_jing.d
		}
		hidden_effect = {
			set_variable = {
				which = PatronApproval
				value = 5
			}
		}
	}

	option = {	#Dakini Bladedancers
		name = patrons_events.2.e
		ai_chance = { 
			factor = 33 
			#if high stat, use this to get best usage
			modifier = {
				factor = 20
				mil = 5
			}
			#if low stat, use this to compensate
			modifier = {
				factor = 20
				NOT = { mil = 3 }
			}
		}
		custom_tooltip = gain_bladedancer_patron_tt
		custom_tooltip = bladedancer.d
		trigger = {
			OR = {
				has_reform = wulin
				has_reform = one_xia
				has_reform = xiaken
				has_reform = xia_parliament_reform
				has_reform = indep_xiaken
			}
		}
		set_ruler_flag = bladedancer_patron
		hidden_effect = {
			set_variable = {
				which = PatronApproval
				value = 5
			}
		}
	}

	option = {	#Nat Overlords
		name = patrons_events.2.f
		ai_chance = { 
			factor = 33 
			#if high stat, use this to get best usage
			modifier = {
				factor = 20
				mil = 5
			}
			#if low stat, use this to compensate
			modifier = {
				factor = 20
				NOT = { mil = 3 }
			}
		}
		custom_tooltip = gain_overlord_patron_tt
		custom_tooltip = overlord.d
		trigger = {
			culture_group = bom
		}
		set_ruler_flag = overlord_patron
		hidden_effect = {
			set_variable = {
				which = PatronApproval
				value = 5
			}
		}
	}

	option = {	#Ethereal Sages
		name = patrons_events.2.g
		ai_chance = { 
			factor = 33 
			#if high stat, use this to get best usage
			modifier = {
				factor = 20
				adm = 5
			}
			#if low stat, use this to compensate
			modifier = {
				factor = 20
				NOT = { adm = 3 }
			}
		}
		custom_tooltip = gain_sage_patron_tt
		custom_tooltip = sage.d
		trigger = {
			culture_group = kai
		}
		set_ruler_flag = sage_patron
		hidden_effect = {
			set_variable = {
				which = PatronApproval
				value = 5
			}
		}
	}

	option = {	#Close Menu
		name = patrons_events.2.close
		ai_chance = { factor = 0 }
		trigger = {
			OR = {
				has_reform = isolated_kingdom_reform
				has_reform = compact_of_menjaeng_reform
				# has_reform = huli_jing_reform
			}
		}
		set_ruler_flag = spirit_patron_delayed
	}
}

#Fey patron selection
# country_event = {
# 	id =  patrons_events.3
# 	title =  patrons_events.3.t
# 	desc =  patrons_events.3.d
# 	picture = FAMINE_eventPicture
	
# 	is_triggered_only = yes
	
# 	trigger = {
# 		always = yes
# 	}

	
# 	option = {	#Deepwoods Seelie Fey
# 		name = patrons_events.3.a
# 		custom_tooltip = gain_seelie_patron_tt
# 		set_ruler_flag = seelie_fey_patron
# 	}
	
# 	option = {	#Deepwoods Unseelie Fey
# 		name = patrons_events.3.b
# 		custom_tooltip = gain_unseelie_patron_tt
# 		set_ruler_flag = unseelie_fey_patron
# 	}

# 	option = {	#Greatwoods Green Hag
# 		name = patrons_events.3.c
# 		custom_tooltip = gain_green_hag_patron_tt
# 		set_ruler_flag = green_hag_patron
# 	}

# 	option = {	#Close Menu
# 		name = patrons_events.3.e
# 		country_event = { id = patrons_events.1 days = 0 }
# 	}
# }

#Fiend patron selection
# country_event = {
# 	id =  patrons_events.4
# 	title =  patrons_events.4.t
# 	desc =  patrons_events.4.d
# 	picture = FAMINE_eventPicture
	
# 	is_triggered_only = yes
	
# 	trigger = {
# 		always = yes
# 	}

	
# 	option = {	#Night Hag
# 		name = patrons_events.4.a
# 		limit = {
# 			capital = {
# 				continent = africa
# 			}
# 			NOT = { culture_group = gnollish }
# 		}
# 		custom_tooltip = gain_night_hag_patron_tt
# 		set_ruler_flag = night_hag_patron
# 	}
	
# 	option = {	#Infernal Court Devil
# 		name = patrons_events.4.b
# 		limit = {
# 			capital = {
# 				continent = europe
# 			}
# 			NOT = { culture_group = gnollish }
# 		}
# 		custom_tooltip = gain_devil_patron_tt
# 		set_ruler_flag = cannor_devil_patron
# 	}

# 	option = {	#Rakshasa
# 		name = patrons_events.4.c
# 		limit = {
# 			capital = {
# 				continent = asia
# 			}
# 			NOT = { culture_group = gnollish }
# 		}
# 		custom_tooltip = gain_rakshasa_patron_tt
# 		set_ruler_flag = rakshasa_patron
# 	}

# 	option = {	#Xhazob Demon
# 		name = patrons_events.4.e
# 		limit = { culture_group = gnollish }
# 		custom_tooltip = gnoll_demon_patron_tt
		
# 	}

# 	option = {	#Close Menu
# 		name = patrons_events.4.f
# 		country_event = { id = patrons_events.1 days = 0 }
# 	}
# }